module github.com/jurabek/basket.api

require (
	github.com/Jurabek/gin-swagger v1.2.2
	github.com/alecthomas/template v0.0.0-20160405071501-a0175ee3bccc
	github.com/coreos/etcd v3.3.12+incompatible // indirect
	github.com/dgrijalva/jwt-go v3.2.0+incompatible
	github.com/gin-gonic/gin v1.4.0
	github.com/go-openapi/spec v0.19.2 // indirect
	github.com/go-openapi/swag v0.19.4 // indirect
	github.com/gomodule/redigo v2.0.0+incompatible
	github.com/google/uuid v1.1.1
	github.com/json-iterator/go v1.1.7 // indirect
	github.com/kr/pty v1.1.8 // indirect
	github.com/lestrrat-go/jwx v0.0.0-20190412050905-88d7d7d2ef64
	github.com/lestrrat-go/pdebug v0.0.0-20180220043849-39f9a71bcabe // indirect
	github.com/mailru/easyjson v0.0.0-20190626092158-b2ccc519800e // indirect
	github.com/ory/go-acc v0.0.0-20181118080137-ddc355013f90 // indirect
	github.com/ory/x v0.0.37 // indirect
	github.com/spf13/jwalterweatherman v1.1.0 // indirect
	github.com/spf13/viper v1.3.2 // indirect
	github.com/stretchr/testify v1.3.0
	github.com/swaggo/gin-swagger v1.2.0
	github.com/swaggo/swag v1.6.2
	github.com/ugorji/go v1.1.7 // indirect
	golang.org/x/crypto v0.0.0-20190701094942-4def268fd1a4 // indirect
	golang.org/x/sys v0.0.0-20190801041406-cbf593c0f2f3 // indirect
	gopkg.in/go-playground/assert.v1 v1.2.1
)
